<?xml version="1.0" encoding="utf-8"?>
<!-- Generator: Adobe Illustrator 17.0.0, SVG Export Plug-In . SVG Version: 6.00 Build 0)  -->
<!DOCTYPE svg PUBLIC "-//W3C//DTD SVG 1.1//EN" "http://www.w3.org/Graphics/SVG/1.1/DTD/svg11.dtd">
<svg version="1.1" id="Camada_1" xmlns="http://www.w3.org/2000/svg" xmlns:xlink="http://www.w3.org/1999/xlink" x="0px" y="0px"
	 width="40px" height="30px" viewBox="-150.973 -94.585 268.9 208.089"
	 enable-background="new -150.973 -94.585 268.9 208.089" xml:space="preserve">
<title>611163-200</title>
<desc>Created with Sketch.</desc>
<g id="Page-1">
	<g id="Bento-Store---Busca-Não-Encontrada-v7" transform="translate(-698.000000, -132.000000)">
		<g>
			<path fill="#30499b" d="M565.207,141.66c0,30.056,0.003,60.112-0.007,90.168c-0.001,2.233,0.782,5.168-0.328,6.555
				c-2.373,2.965-5.765,7.093-8.707,7.068c-2.937-0.026-6.248-4.222-8.568-7.228c-1.094-1.417-0.281-4.329-0.281-6.563
				c-0.005-60.112-0.005-120.224-0.002-180.336c0-1.987-0.172-4.002,0.094-5.955c0.698-5.122,3.661-8.167,8.924-8.131
				c5.29,0.036,8.128,3.206,8.781,8.3c0.251,1.957,0.09,3.969,0.091,5.955C565.208,81.548,565.207,111.604,565.207,141.66z"/>
			<path fill="#30499b" d="M797.841,141.476c0-30.056-0.001-60.113,0.002-90.169c0-1.987-0.173-4.003,0.096-5.955
				c0.707-5.119,3.669-8.164,8.936-8.12c5.293,0.044,8.102,3.227,8.773,8.315c0.226,1.711,0.085,3.473,0.085,5.211
				c0.003,60.61,0.005,121.22-0.01,181.829c0,2.229,0.682,5.185-0.456,6.535c-2.32,2.752-5.685,6.411-8.586,6.382
				c-2.89-0.028-6.168-3.769-8.427-6.568c-1.121-1.388-0.402-4.315-0.403-6.546C797.836,202.086,797.841,171.781,797.841,141.476z"
				/>
			<path fill="#30499b" d="M580.12,132.284c0-27.585-0.018-55.17,0.011-82.755c0.008-8.075,2.967-12.128,8.746-12.246
				c5.812-0.119,9.118,4.057,9.122,11.882c0.029,55.667,0.029,111.334,0,167c-0.004,7.816-3.325,12.006-9.13,11.881
				c-5.767-0.124-8.729-4.192-8.737-12.263C580.103,187.95,580.12,160.117,580.12,132.284z"/>
			<path fill="#30499b" d="M606.962,132.281c0-27.585-0.018-55.17,0.011-82.755c0.008-8.074,2.969-12.127,8.748-12.244
				c5.812-0.117,9.116,4.058,9.12,11.885c0.029,55.667,0.029,111.334,0,167c-0.004,7.815-3.327,12.005-9.132,11.879
				c-5.767-0.126-8.727-4.193-8.735-12.265C606.945,187.948,606.962,160.115,606.962,132.281z"/>
			<path fill="#30499b" d="M645.735,132.285c0-27.585-0.018-55.17,0.011-82.755c0.008-8.076,2.966-12.129,8.744-12.248
				c5.812-0.12,9.12,4.056,9.124,11.881c0.029,55.667,0.029,111.334,0,167c-0.004,7.817-3.323,12.007-9.128,11.883
				c-5.767-0.123-8.731-4.191-8.739-12.261C645.717,187.952,645.735,160.119,645.735,132.285z"/>
			<path fill="#30499b" d="M672.577,132.281c0-27.585-0.018-55.17,0.011-82.755c0.008-8.074,2.969-12.127,8.748-12.244
				c5.812-0.117,9.116,4.058,9.12,11.885c0.028,55.667,0.029,111.334,0,167c-0.004,7.814-3.327,12.005-9.132,11.879
				c-5.766-0.126-8.727-4.193-8.735-12.265C672.56,187.948,672.577,160.115,672.577,132.281z"/>
			<path fill="#30499b" d="M699.419,131.937c0-26.839,0-53.679,0.001-80.518c0-1.739-0.1-3.489,0.048-5.217c0.472-5.517,3.474-8.921,9.052-8.817
				c5.578,0.104,8.582,3.632,8.726,9.145c0.188,7.202,0.066,14.412,0.066,21.619c0.002,48.46,0.002,96.92-0.001,145.38
				c0,1.988,0.127,3.993-0.085,5.96c-0.555,5.145-3.469,8.387-8.661,8.46c-5.576,0.078-8.806-3.266-9.052-8.788
				c-0.287-6.449-0.092-12.92-0.093-19.381C699.417,177.166,699.419,154.552,699.419,131.937z"/>
			<path fill="#30499b" d="M738.191,131.921c0-26.591,0-53.182,0-79.772c0-1.491,0.007-2.982,0.003-4.473c-0.019-6.148,2.702-10.377,9.114-10.258
				c6.432,0.119,8.846,4.547,8.789,10.619c-0.062,6.709-0.011,13.42-0.011,20.129c0,48.46,0.001,96.92-0.002,145.38
				c0,1.988,0.129,3.993-0.087,5.96c-0.564,5.144-3.482,8.381-8.675,8.445c-5.577,0.068-8.779-3.283-9.04-8.804
				c-0.282-5.951-0.088-11.925-0.089-17.89C738.189,178.144,738.191,155.033,738.191,131.921z"/>
			<path fill="#30499b" d="M765.034,132.018c0-26.839-0.001-53.679,0.003-80.518c0-1.988-0.16-4.003,0.104-5.957
				c0.693-5.127,3.698-8.229,8.914-8.177c5.211,0.052,8.361,3.198,8.731,8.344c0.373,5.193,0.139,10.431,0.139,15.649
				c0.005,50.696,0.003,101.393,0.001,152.09c0,1.988,0.118,3.99-0.078,5.96c-0.512,5.155-3.405,8.417-8.588,8.539
				c-5.571,0.131-8.828-3.181-9.126-8.706c-0.307-5.7-0.098-11.428-0.099-17.143C765.031,178.739,765.033,155.378,765.034,132.018z"
				/>
		</g>
	</g>
</g>
</svg>
