<?xml version="1.0" encoding="utf-8"?>
<!-- Generator: Adobe Illustrator 17.0.0, SVG Export Plug-In . SVG Version: 6.00 Build 0)  -->
<!DOCTYPE svg PUBLIC "-//W3C//DTD SVG 1.1//EN" "http://www.w3.org/Graphics/SVG/1.1/DTD/svg11.dtd">
<svg version="1.1" id="Camada_1" xmlns="http://www.w3.org/2000/svg" xmlns:xlink="http://www.w3.org/1999/xlink" x="0px" y="0px"
	 width="40px" height="69px" viewBox="64.345 42.524 154.486 269.287"
	 enable-background="new 64.345 42.524 154.486 269.287" xml:space="preserve">
<g>
	<path fill="#636363" d="M89.006,46.776c-2.835-2.835-6.236-4.252-10.205-4.252c-3.968,0-7.37,1.701-10.205,4.252
		c-2.835,2.835-4.252,6.236-4.252,10.205s1.417,7.37,4.252,10.205l110.266,109.982L68.597,287.15
		c-2.835,2.835-4.252,6.236-4.252,10.205s1.417,7.37,4.252,10.205s6.236,4.252,9.921,4.252c3.402,0,7.087-1.417,9.921-3.968
		l130.392-130.392L89.006,46.776z"/>
</g>
</svg>
