<?xml version="1.0" encoding="utf-8"?>
<!-- Generator: Adobe Illustrator 17.0.0, SVG Export Plug-In . SVG Version: 6.00 Build 0)  -->
<!DOCTYPE svg PUBLIC "-//W3C//DTD SVG 1.1//EN" "http://www.w3.org/Graphics/SVG/1.1/DTD/svg11.dtd">
<svg version="1.1" id="Camada_1" xmlns="http://www.w3.org/2000/svg" xmlns:xlink="http://www.w3.org/1999/xlink" x="0px" y="0px"
	 width="40px" height="40px" viewBox="44.831 80.375 193.704 193.925"
	 enable-background="new 44.831 80.375 193.704 193.925" xml:space="preserve">
<g>
	<path fill="#acacac" d="M124.28,112.9c7.661,7.661,7.661,21.281,0,28.942l-13.62,13.62c10.215,22.132,31.496,42.562,52.776,53.628l13.62-14.471
		c8.512-7.661,21.281-7.661,28.942,0l22.132,22.132c7.661,7.661,7.661,20.43,0,28.942l-22.132,21.281
		C164.288,309.534,10.215,154.61,51.925,112.9l22.132-21.281c7.661-8.512,20.43-8.512,28.942,0L124.28,112.9z M156.627,91.619
		c-6.81-1.702-4.256-12.768,3.405-11.066c38.305,10.215,68.098,40.008,78.313,78.313c1.702,7.661-8.512,10.215-11.066,3.405
		C218.766,128.222,191.527,100.982,156.627,91.619z M149.817,118.007c-6.81-1.702-4.256-12.768,3.405-11.066
		c28.942,7.661,51.074,30.644,58.735,59.586c2.554,6.81-8.512,10.215-11.066,2.554C194.932,144.395,175.354,124.817,149.817,118.007
		z M116.619,120.561L94.487,99.28c-3.405-3.405-9.364-3.405-12.768,0l-21.281,21.281C28.942,152.056,166.841,289.956,198.337,258.46
		l21.281-21.281c3.405-3.405,4.256-9.364,0.851-12.768l-22.132-21.281c-3.405-4.256-9.364-4.256-12.768,0l-17.025,16.173
		c-1.702,1.702-4.256,2.554-5.959,1.702c-26.388-11.917-51.925-37.454-63.842-63.842c-1.702-1.702-0.851-5.107,0.851-6.81
		l17.025-16.173C120.024,129.924,120.024,123.966,116.619,120.561z"/>
</g>
</svg>
