<?xml version="1.0" encoding="utf-8"?>
<!-- Generator: Adobe Illustrator 17.0.0, SVG Export Plug-In . SVG Version: 6.00 Build 0)  -->
<!DOCTYPE svg PUBLIC "-//W3C//DTD SVG 1.1//EN" "http://www.w3.org/Graphics/SVG/1.1/DTD/svg11.dtd">
<svg version="1.1" id="Camada_1" xmlns="http://www.w3.org/2000/svg" xmlns:xlink="http://www.w3.org/1999/xlink" x="0px" y="0px"
	 width="40px" height="40px" viewBox="23.811 59.248 235.839 235.839"
	 enable-background="new 23.811 59.248 235.839 235.839" xml:space="preserve">
<path fill="#30499b" d="M141.73,59.248c-65.196,0-117.919,52.724-117.919,117.919c0,31.181,12.189,59.527,31.748,80.503
	c0.283,0.567,0.85,0.85,1.134,1.134c21.543,22.393,51.59,36.283,85.038,36.283c65.196,0,117.919-52.724,117.919-117.919
	S206.926,59.248,141.73,59.248z M141.73,277.512c-23.244,0-44.787-7.937-61.794-21.543c25.795-9.071,37.133-19.842,41.952-28.063
	c5.386,1.984,11.622,3.118,18.141,3.118c0.283,0,0.283,0,0.567,0h0.283h0.283c0.283,0,0.283,0,0.567,0
	c7.087,0,13.606-1.417,19.275-3.685c1.134,2.268,2.835,4.819,5.386,7.653c7.653,8.504,20.126,15.59,36.85,21.26
	C186.233,269.575,164.974,277.512,141.73,277.512z M104.313,152.79c0-0.283,0-0.283,0-0.567
	c1.701-34.299,25.228-37.984,35.149-37.984c0.283,0,0.567,0,0.85,0c0.283,0,0.567,0,0.567,0c0.283,0,0.283,0,0.85,0
	c10.205,0,33.732,3.685,35.149,37.984c0,0.283,0,0.283,0,0.567c1.134,9.354,0.85,36.566-11.905,50.739
	c-5.953,6.52-13.89,9.921-24.378,9.921h-0.283h-0.283c-10.488,0-18.425-3.402-24.378-9.921
	C100.912,186.522,104.313,153.073,104.313,152.79z M217.981,242.363c-34.015-9.354-40.535-20.976-41.952-24.661
	c0.85-0.85,1.701-1.701,2.551-2.551c19.842-22.393,16.724-60.094,16.157-64.062c-1.984-39.968-29.763-54.424-53.007-54.424
	c-0.567,0-0.85,0-1.134,0s-0.567,0-1.134,0c-23.244,0-50.739,14.173-52.724,54.424c-0.283,3.968-3.402,41.952,16.157,64.062
	c1.134,1.417,2.268,2.551,3.685,3.685c-0.567,1.134-1.417,2.268-3.118,3.968c-4.819,5.102-15.59,12.756-38.267,19.559
	c-15.023-17.575-24.094-40.251-24.094-65.196c0-55.275,45.07-100.345,100.345-100.345s100.345,45.07,100.345,100.345
	C242.075,202.112,233.004,224.789,217.981,242.363z"/>
</svg>
