<?xml version="1.0" encoding="utf-8"?>
<!-- Generator: Adobe Illustrator 17.0.0, SVG Export Plug-In . SVG Version: 6.00 Build 0)  -->
<!DOCTYPE svg PUBLIC "-//W3C//DTD SVG 1.1//EN" "http://www.w3.org/Graphics/SVG/1.1/DTD/svg11.dtd">
<svg version="1.1" id="Camada_1" xmlns="http://www.w3.org/2000/svg" xmlns:xlink="http://www.w3.org/1999/xlink" x="0px" y="0px"
	 width="40px" height="33px" viewBox="31.915 87.027 219.23 180.847"
	 enable-background="new 31.915 87.027 219.23 180.847" xml:space="preserve">
<g display="none">
	<polygon display="inline" points="215.997,168.097 102.613,168.097 159.305,111.405 146.265,98.366 67.463,177.168 
		146.265,255.969 159.305,242.93 102.613,186.238 215.997,186.238 	"/>
	 <path fill="#ffffff" display="inline" d="M141.73,96.098c-36.85,0-66.613,29.763-66.613,66.613c0,53.007,66.613,95.526,66.613,95.526
		s66.613-42.519,66.613-95.526C208.343,125.861,178.58,96.098,141.73,96.098z M141.73,188.222c-14.74,0-26.645-11.905-26.645-26.645
		c0-14.74,11.905-26.645,26.645-26.645s26.645,11.905,26.645,26.645C168.375,176.034,156.47,188.222,141.73,188.222z"/>
	 <path fill="#ffffff" display="inline" d="M211.745,121.042h-41.385L141.73,92.413c0,0-16.441,16.441-28.629,28.629H71.715
		c-7.653,0-13.606,6.236-13.606,13.606v113.384c0,7.653,6.236,13.606,13.606,13.606h140.029c7.653,0,13.606-6.236,13.606-13.606
		V134.649C225.351,127.279,219.398,121.042,211.745,121.042z M141.73,147.404c7.37,0,16.441,5.669,16.441,20.976
		c0,12.472-5.953,24.094-16.441,24.094s-16.441-11.622-16.441-24.094C125.289,153.073,134.36,147.404,141.73,147.404z
		 M175.178,228.19H141.73h-33.448v-5.102c0-5.102,2.268-22.96,28.629-22.96h4.819h4.819c26.362,0,28.629,17.858,28.629,22.96
		L175.178,228.19L175.178,228.19z"/>
	 <path fill="#ffffff" display="inline" d="M211.745,94.964H71.715c-7.653,0-13.606,6.236-13.606,13.606v136.911c0,7.653,6.236,13.606,13.606,13.606
		h70.015v-62.928h-18.141v-27.212h18.141v-18.425c0-15.023,12.189-27.212,27.212-27.212h28.346v27.212h-19.275
		c-4.819,0-8.787,3.968-8.787,8.787v9.638h28.346v27.212h-28.346v63.212h42.802c7.653,0,13.606-6.236,13.606-13.606V108.854
		C225.351,101.2,219.398,94.964,211.745,94.964z"/>
	<g display="inline">
		 <path fill="#ffffff" d="M192.469,134.932c-23.244,0-42.236,18.992-42.236,42.236s18.992,42.236,42.236,42.236s42.236-18.992,42.236-42.236
			S215.713,134.932,192.469,134.932z M192.469,204.096c-14.74,0-26.929-12.189-26.929-26.929c0-14.74,12.189-26.929,26.929-26.929
			s26.929,12.189,26.929,26.929C219.398,191.907,207.209,204.096,192.469,204.096z"/>
		 <path fill="#ffffff" d="M90.991,134.932c-23.244,0-42.236,18.992-42.236,42.236s18.992,42.236,42.236,42.236s42.236-18.992,42.236-42.236
			S114.234,134.932,90.991,134.932z"/>
	</g>
	 <path fill="#ffffff" display="inline" d="M197.572,227.623c-5.102,4.535-11.905,7.37-19.275,7.37c-7.37,0-13.89-2.551-18.992-7.087
		c-0.567-0.283-0.85-0.85-1.417-1.417c-3.118-3.685-4.535-8.504-4.535-13.323v-43.369h40.535v-33.165h-40.535V90.145h-29.763l0,0
		c0,20.976-17.008,46.487-37.7,46.487l0,0v33.448h25.228v48.755c0,12.189,5.102,24.094,14.173,32.031
		c9.638,8.504,22.11,13.323,35.999,13.323s26.645-5.102,36.283-13.606V227.623z"/>
	<polygon display="inline" points="208.343,123.594 195.304,110.554 141.73,164.128 88.156,110.554 75.117,123.594 128.691,177.168 
		75.117,230.741 88.156,243.781 141.73,190.207 195.304,243.781 208.343,230.741 154.769,177.168 	"/>
	 <path fill="#ffffff" display="inline" d="M141.73,39.122c-76.251,0-138.045,61.794-138.045,138.045S65.479,315.213,141.73,315.213
		s138.045-61.794,138.045-138.045S217.981,39.122,141.73,39.122z M126.707,248.033H76.251c-2.835,0-5.102-2.268-5.102-5.102v-50.739
		c0-2.835,2.268-5.102,5.102-5.102c2.835,0,5.102,2.268,5.102,5.102v45.07h45.07c2.835,0,5.102,2.268,5.102,5.102
		C131.525,245.198,129.541,248.033,126.707,248.033z M212.595,162.144c0,2.835-2.268,5.102-5.102,5.102
		c-2.835,0-5.102-2.268-5.102-5.102v-45.354h-45.637c-2.835,0-5.102-2.268-5.102-5.102c0-2.835,2.268-5.102,5.102-5.102h50.456
		c2.835,0,5.102,2.268,5.102,5.102v50.456H212.595z"/>
	<g display="inline">
		 <path fill="#ffffff" d="M141.73,39.122c-76.251,0-138.045,61.794-138.045,138.045S65.479,315.213,141.73,315.213s138.045-61.794,138.045-138.045
			S217.981,39.122,141.73,39.122z M202.674,201.262c0,20.126-16.441,36.566-36.566,36.566h-48.472
			c-20.126,0-36.566-16.441-36.566-36.566v-48.188c0-20.126,16.441-36.566,36.566-36.566h48.472
			c20.126,0,36.566,16.441,36.566,36.566V201.262z"/>
		 <path fill="#ffffff" d="M91.274,153.073v48.472c0,14.456,11.622,26.078,26.078,26.078h18.992V126.712h-18.992
			C103.179,126.712,91.274,138.617,91.274,153.073z"/>
		 <path fill="#ffffff" d="M146.832,227.623h18.992c14.456,0,26.078-11.622,26.078-26.078v-18.992h-45.07V227.623z"/>
		 <path fill="#ffffff" d="M165.824,126.712h-18.992v45.07h45.07V152.79C192.186,138.617,180.281,126.712,165.824,126.712z"/>
	</g>
	<g display="inline">
		 <path fill="#ffffff" d="M102.046,154.774c-12.472,0-22.393,10.205-22.393,22.393c0,12.472,10.205,22.393,22.393,22.393
			c13.89,0,27.212-14.173,33.448-22.393C130.392,170.648,117.069,154.774,102.046,154.774z"/>
		 <path fill="#ffffff" d="M181.414,154.774c-15.023,0-28.346,15.874-33.448,22.393c4.819,6.52,18.425,22.393,33.448,22.393
			c12.472,0,22.393-10.205,22.393-22.393C203.808,164.695,193.887,154.774,181.414,154.774z"/>
		 <path fill="#ffffff" d="M141.73,39.122c-76.251,0-138.045,61.794-138.045,138.045S65.479,315.213,141.73,315.213s138.045-61.794,138.045-138.045
			S217.981,39.122,141.73,39.122z M181.414,210.049c-17.858,0-32.598-15.307-39.684-24.094
			c-7.087,8.787-21.826,24.094-39.684,24.094c-18.141,0-32.881-14.74-32.881-32.881s14.74-32.881,32.881-32.881
			c17.858,0,32.598,15.307,39.684,24.094c7.087-8.787,21.826-24.094,39.684-24.094c18.141,0,32.881,14.74,32.881,32.881
			S199.556,210.049,181.414,210.049z"/>
	</g>
	<g display="inline">
		 <path fill="#ffffff" d="M124.155,247.749H71.148v-53.007c0-3.402-2.835-6.236-6.236-6.236c-3.402,0-6.236,2.835-6.236,6.236v58.96
			c0,3.401,2.835,6.236,6.236,6.236h58.96c3.402,0,6.236-2.835,6.236-6.236C130.108,250.3,127.274,247.749,124.155,247.749z"/>
		 <path fill="#ffffff" d="M218.264,94.397h-58.96c-3.402,0-6.236,2.835-6.236,6.236s2.835,6.236,6.236,6.236h52.724v52.724
			c0,3.402,2.835,6.236,6.236,6.236c3.402,0,6.236-2.835,6.236-6.236v-58.96C224.5,97.232,221.666,94.397,218.264,94.397z"/>
	</g>
	 <path fill="#ffffff" display="inline" d="M170.076,106.019h-56.692c-23.527,0-42.802,19.275-42.802,42.802v56.692
		c0,23.527,19.275,42.802,42.802,42.802h56.692c23.527,0,42.802-19.275,42.802-42.802v-56.692
		C212.878,125.294,193.603,106.019,170.076,106.019z M200.69,148.822v22.11h-52.724v-52.724h22.11
		C186.8,118.208,200.69,132.097,200.69,148.822z M82.77,205.514v-56.692c0-17.008,13.606-30.614,30.614-30.614h22.11v117.919h-22.11
		C96.66,236.127,82.77,222.238,82.77,205.514z M170.076,236.127h-22.11v-52.724h52.724v22.11
		C200.69,222.238,186.8,236.127,170.076,236.127z"/>
	 <path fill="#ffffff" display="inline" d="M188.217,138.617c-20.976,0-38.267,17.858-46.487,28.063c-8.22-10.205-25.511-28.063-46.487-28.063
		c-21.259,0-38.551,17.291-38.551,38.551s17.291,38.551,38.551,38.551c20.976,0,38.267-17.858,46.487-28.063
		c8.22,10.205,25.511,28.063,46.487,28.063c21.26,0,38.551-17.291,38.551-38.551S209.477,138.617,188.217,138.617z M95.243,203.529
		c-14.456,0-26.362-11.905-26.362-26.362c0-14.456,11.905-26.362,26.362-26.362c17.575,0,33.165,18.708,38.834,26.362
		C127.274,186.805,111.4,203.529,95.243,203.529z M188.217,203.529c-17.575,0-33.165-18.425-38.834-26.362
		c5.669-7.653,21.259-26.362,38.834-26.362c14.456,0,26.362,11.905,26.362,26.362C214.579,191.624,202.674,203.529,188.217,203.529z
		"/>
	<g display="inline">
		 <path fill="#ffffff" d="M141.73,48.76c-70.865,0-128.407,57.542-128.407,128.407S70.865,305.575,141.73,305.575s128.407-57.542,128.407-128.407
			S212.595,48.76,141.73,48.76z M141.73,290.268c-62.361,0-113.101-50.739-113.101-113.101S79.369,64.067,141.73,64.067
			s113.101,50.739,113.101,113.101S204.091,290.268,141.73,290.268z"/>
		 <path fill="#ffffff" d="M191.619,183.687l-50.739-30.614l0,0l10.205-67.747c0.567-3.968-4.819-5.953-6.803-2.551l-53.574,82.77
			c-1.134,1.701-0.567,4.252,1.134,5.386l50.456,30.614l0,0l-10.205,67.747c-0.567,3.968,4.819,5.953,6.803,2.551l53.857-83.054
			C193.887,187.089,193.32,184.537,191.619,183.687z"/>
	</g>
	<g display="inline">
		<circle cx="141.73" cy="113.956" r="18.141"/>
		<circle cx="141.73" cy="177.168" r="18.141"/>
		<circle cx="141.73" cy="240.379" r="18.141"/>
	</g>
	<g display="inline">
		<polygon points="225.918,158.743 225.918,128.412 207.493,128.412 207.493,158.743 177.162,158.743 177.162,177.168 
			207.493,177.168 207.493,207.498 225.918,207.498 225.918,177.168 256.248,177.168 256.248,158.743 		"/>
		<circle cx="120.187" cy="135.215" r="45.07"/>
		 <path fill="#ffffff" d="M168.375,200.411H70.582c-24.094,0-43.653,19.559-43.653,43.653v11.055c0,5.102,4.252,9.354,9.354,9.354H202.39
			c5.102,0,9.354-4.252,9.354-9.354v-11.055C212.028,219.97,192.469,200.411,168.375,200.411z"/>
	</g>
	 <path fill="#ffffff" display="inline" d="M188.784,258.237c0,0-94.109-55.842-94.109-109.982c0-28.913,23.244-52.157,52.157-52.157"/>
	<g display="inline">
		 <path fill="#ffffff" d="M94.109,165.546c-3.118-3.118-7.937-3.118-10.771,0L58.393,190.49c-0.567-4.252-1.134-8.504-1.134-13.039
			c0-46.487,37.7-84.188,84.188-84.188c13.323,0,26.078,3.118,37.984,9.071c3.685,1.984,8.504,0.283,10.205-3.402
			c1.984-3.685,0.283-8.504-3.402-10.205c-13.89-7.087-28.913-10.771-44.787-10.771c-54.708,0-99.494,44.503-99.494,99.494
			c0,5.102,0.283,10.205,1.134,15.307l-27.212-27.212c-3.118-3.118-7.937-3.118-10.771,0c-3.118,3.118-3.118,7.937,0,10.771
			l39.117,39.117c1.417,1.417,3.402,2.268,5.386,2.268c1.984,0,3.968-0.85,5.386-2.268l39.117-39.117
			C96.943,173.199,96.943,168.38,94.109,165.546z"/>
		 <path fill="#ffffff" d="M278.074,178.018L239.24,138.9c-3.118-3.118-7.937-3.118-10.771,0l-39.117,39.117c-3.118,3.118-3.118,7.937,0,10.771
			c3.118,3.118,7.937,3.118,10.771,0l24.944-24.944c0.567,4.252,1.134,8.504,1.134,13.039c0,46.487-37.7,84.188-84.188,84.188
			c-13.323,0-26.078-3.118-37.984-9.071c-3.685-1.984-8.504-0.283-10.205,3.402c-1.984,3.685-0.283,8.504,3.402,10.205
			c13.89,7.086,29.196,10.771,45.07,10.771c54.708,0,99.494-44.503,99.494-99.494c0-5.102-0.283-10.205-1.134-15.307l27.212,27.212
			c1.417,1.417,3.402,2.268,5.386,2.268s3.968-0.85,5.386-2.268C281.192,185.955,281.192,181.136,278.074,178.018z"/>
	</g>
	<g display="inline">
		<rect x="191.902" y="163.845" width="26.929" height="26.929"/>
		<rect x="128.407" y="163.845" width="26.929" height="26.929"/>
		<rect x="64.912" y="163.845" width="26.929" height="26.929"/>
		<rect x="191.902" y="227.34" width="26.929" height="26.929"/>
		<rect x="128.407" y="227.34" width="26.929" height="26.929"/>
		<rect x="64.912" y="227.34" width="26.929" height="26.929"/>
		<rect x="191.902" y="100.35" width="26.929" height="26.929"/>
		<rect x="128.407" y="100.35" width="26.929" height="26.929"/>
		<rect x="64.912" y="100.35" width="26.929" height="26.929"/>
	</g>
	<g display="inline">
		<rect x="53.007" y="95.531" width="22.393" height="22.393"/>
		<rect x="53.007" y="166.113" width="22.393" height="22.393"/>
		<rect x="53.007" y="236.694" width="22.393" height="22.393"/>
		<rect x="93.825" y="102.334" width="136.628" height="8.22"/>
		<rect x="93.825" y="173.199" width="136.628" height="8.22"/>
		<rect x="93.825" y="243.781" width="136.628" height="8.22"/>
	</g>
	<g display="inline">
		 <path fill="#ffffff" d="M167.525,201.262h-51.59c-8.22,0-15.023,6.803-15.023,15.307v11.905h9.071v-11.905c0-3.402,2.551-5.953,5.669-5.953h51.59
			c3.118,0,5.669,2.835,5.669,5.953v11.905h9.071v-11.905C182.548,208.065,175.745,201.262,167.525,201.262z"/>
		 <path fill="#ffffff" d="M141.73,191.341c13.039,0,23.811-10.771,23.811-23.811c0-13.039-10.771-23.811-23.811-23.811
			s-23.811,10.771-23.811,23.811C117.919,180.569,128.691,191.341,141.73,191.341z M141.73,153.073
			c7.937,0,14.456,6.52,14.456,14.456c0,7.937-6.52,14.456-14.456,14.456s-14.456-6.52-14.456-14.456
			C127.274,159.593,133.793,153.073,141.73,153.073z"/>
		 <path fill="#ffffff" d="M225.351,104.318h-51.023c-2.268,0-4.535-0.85-5.953-2.551l-17.575-17.575c-2.268-2.268-5.669-3.685-8.787-3.685
			c-3.118,0-6.52,1.417-8.787,3.685l-17.575,17.575c-1.701,1.701-3.685,2.551-5.953,2.551H58.676
			c-11.338,0-20.693,9.354-20.693,20.693v128.691c0,11.338,9.354,20.693,20.693,20.693h167.241c11.338,0,20.693-9.354,20.693-20.693
			V124.727C246.043,113.389,236.689,104.318,225.351,104.318z M236.689,253.418c0,6.236-5.102,11.338-11.338,11.338H58.109
			c-6.236,0-11.338-5.102-11.338-11.338V124.727c0-6.236,5.102-11.338,11.338-11.338h51.023c4.819,0,9.354-1.984,12.472-5.102
			l17.575-17.575c1.417-1.417,3.685-1.417,4.819,0l17.575,17.575c3.402,3.402,7.937,5.102,12.472,5.102h51.023
			c6.236,0,11.338,5.102,11.338,11.338v128.691H236.689z"/>
	</g>
</g>
<g>
	 <path fill="#ffffff" d="M250.579,99.499v-0.283c0.283-0.283,0.283-0.85,0.567-1.134c0-0.283,0-0.283,0-0.567c0-0.283,0-0.567,0-1.134
		c0-0.283,0-0.567,0-0.567c0-0.283,0-0.567,0-1.134c0-0.283,0-0.567,0-0.567V93.83c0-0.283,0-0.283-0.283-0.567
		c0-0.283,0-0.283-0.283-0.567c0-0.283-0.283-0.567-0.567-0.85c0-0.283-0.283-0.283-0.283-0.567
		c-0.283-0.567-0.567-0.85-1.134-1.417l0,0c-0.283-0.283-0.85-0.85-1.134-1.134l0,0c0,0-0.283,0-0.283-0.283
		c-0.283-0.283-0.567-0.283-1.134-0.567c-0.283,0-0.283-0.283-0.567-0.283c-0.283,0-0.567-0.283-1.134-0.283
		c-0.283,0-0.283,0-0.567-0.283c-0.283,0-0.567,0-1.134,0c-0.283,0-0.283,0-0.567,0c0,0,0,0-0.283,0H41.102
		c-3.685,0-7.087,2.268-8.504,5.669c-1.417,3.402-0.567,7.37,1.984,9.921l65.763,65.763l14.74,91.841
		c0.567,3.685,3.402,6.52,6.803,7.37c0.567,0.283,1.417,0.283,2.268,0.283c2.835,0,5.669-1.417,7.37-3.685l117.919-162.706l0,0
		C250.012,100.633,250.295,100.066,250.579,99.499z M204.091,104.885l-92.975,47.621l-47.621-47.621H204.091z M129.825,235.277
		l-10.488-66.33l92.975-47.621L129.825,235.277z"/>
</g>
</svg>
